com\softdev\lab6\Board.class
com\softdev\lab6\OXGameUI$5.class
com\softdev\lab6\Game.class
com\softdev\lab6\HelloMe.class
com\softdev\lab6\OXGameUI$3.class
com\softdev\lab6\OXGameUI$6.class
com\softdev\lab6\OXGameUI$11.class
com\softdev\lab6\OXGameUI$7.class
com\softdev\lab6\OXGameUI$8.class
com\softdev\lab6\OXGameUI$2.class
com\softdev\lab6\OXOOP.class
com\softdev\lab6\OXGameUI$1.class
com\softdev\lab6\OXGameUI.class
com\softdev\lab6\Lab6.class
com\softdev\lab6\HelloMe$1.class
com\softdev\lab6\OXGameUI$10.class
com\softdev\lab6\OXGameUI$4.class
com\softdev\lab6\Player.class
com\softdev\lab6\HelloMe$2.class
com\softdev\lab6\OXGameUI$9.class
